{
  "usingComponents": {
    "van-search": "../../dist/search/index",
    "van-icon": "../../dist/icon/index",
    "wux-floating-button": "../../wux-dist/floating-button/index",
    "wux-icon": "../../wux-dist/icon/index"
  }
}